project1/simulation/qsim/project1.msim.vcd
$comment
	File created using the following command:
		vcd file project1.msim.vcd -direction
$end
$date
	Wed Sep 29 15:20:13 2021
$end
$version
	ModelSim Version 10.1d
$end
$timescale
	1ps
$end
$scope module trans3to8_vlg_vec_tst $end
$var reg 1 ! a1 $end
$var reg 1 " b2 $end
$var reg 1 # c8 $end
$var reg 1 $ S $end
$var wire 1 % C0 $end
$var wire 1 & C1 $end
$var wire 1 ' C2 $end
$var wire 1 ( C3 $end
$var wire 1 ) C4 $end
$var wire 1 * C5 $end
$var wire 1 + C6 $end
$var wire 1 , C7 $end
$var wire 1 - sampler $end
$scope module i1 $end
$var wire 1 . gnd $end
$var wire 1 / vcc $end
$var wire 1 0 unknown $end
$var tri1 1 1 devclrn $end
$var tri1 1 2 devpor $end
$var tri1 1 3 devoe $end
$var wire 1 4 C0~output_o $end
$var wire 1 5 C1~output_o $end
$var wire 1 6 C2~output_o $end
$var wire 1 7 C3~output_o $end
$var wire 1 8 C4~output_o $end
$var wire 1 9 C5~output_o $end
$var wire 1 : C6~output_o $end
$var wire 1 ; C7~output_o $end
$var wire 1 < S~input_o $end
$var wire 1 = a1~input_o $end
$var wire 1 > b2~input_o $end
$var wire 1 ? c8~input_o $end
$var wire 1 @ inst26~combout $end
$var wire 1 A inst16~combout $end
$var wire 1 B inst14~combout $end
$var wire 1 C inst12~combout $end
$var wire 1 D inst10~combout $end
$var wire 1 E inst9~combout $end
$var wire 1 F inst~combout $end
$upscope $end
$upscope $end
$enddefinitions $end
#0
$dumpvars
0!
0"
0#
0$
0%
1&
1'
1(
1)
1*
1+
1,
x-
0.
1/
x0
11
12
13
04
15
16
17
18
19
1:
1;
0<
0=
0>
0?
1@
0A
0B
0C
0D
0E
0F
$end
#10000
1!
1=
0-
0@
14
1%
#20000
1"
0!
1>
0=
1-
1A
06
0'
#30000
1!
1=
0-
1B
0A
07
16
0(
1'
#40000
1#
0"
0!
1?
0>
0=
1-
1C
0B
08
17
0)
1(
#50000
1!
1=
0-
1D
0C
09
18
0*
1)
#60000
1"
0!
1>
0=
1-
1E
0D
0:
19
0+
1*
#70000
1!
1=
0-
1F
0E
0;
1:
0,
1+
#80000
1$
0#
0"
0!
1<
0?
0>
0=
1-
1E
1D
1C
1B
1A
1@
05
0&
0:
09
08
07
06
04
0+
0*
0)
0(
0'
0%
#90000
1!
1=
0-
#100000
1"
0!
1>
0=
1-
#110000
1!
1=
0-
#120000
1#
0"
0!
1?
0>
0=
1-
#130000
1!
1=
0-
#140000
1"
0!
1>
0=
1-
#150000
1!
1=
0-
#160000
0$
0#
0"
0!
0<
0?
0>
0=
1-
0F
0E
0D
0C
0B
0A
15
1&
1;
1:
19
18
17
16
1,
1+
1*
1)
1(
1'
#170000
1!
1=
0-
0@
14
1%
#180000
1"
0!
1>
0=
1-
1A
06
0'
#190000
1!
1=
0-
1B
0A
07
16
0(
1'
#200000
1#
0"
0!
1?
0>
0=
1-
1C
0B
08
17
0)
1(
#210000
1!
1=
0-
1D
0C
09
18
0*
1)
#220000
1"
0!
1>
0=
1-
1E
0D
0:
19
0+
1*
#230000
1!
1=
0-
1F
0E
0;
1:
0,
1+
#240000
1$
0#
0"
0!
1<
0?
0>
0=
1-
1E
1D
1C
1B
1A
1@
05
0&
0:
09
08
07
06
04
0+
0*
0)
0(
0'
0%
#250000
1!
1=
0-
#260000
1"
0!
1>
0=
1-
#270000
1!
1=
0-
#280000
1#
0"
0!
1?
0>
0=
1-
#290000
1!
1=
0-
#300000
1"
0!
1>
0=
1-
#310000
1!
1=
0-
#320000
0$
0#
0"
0!
0<
0?
0>
0=
1-
0F
0E
0D
0C
0B
0A
15
1&
1;
1:
19
18
17
16
1,
1+
1*
1)
1(
1'
#330000
1!
1=
0-
0@
14
1%
#340000
1"
0!
1>
0=
1-
1A
06
0'
#350000
1!
1=
0-
1B
0A
07
16
0(
1'
#360000
1#
0"
0!
1?
0>
0=
1-
1C
0B
08
17
0)
1(
#370000
1!
1=
0-
1D
0C
09
18
0*
1)
#380000
1"
0!
1>
0=
1-
1E
0D
0:
19
0+
1*
#390000
1!
1=
0-
1F
0E
0;
1:
0,
1+
#400000
1$
0#
0"
0!
1<
0?
0>
0=
1-
1E
1D
1C
1B
1A
1@
05
0&
0:
09
08
07
06
04
0+
0*
0)
0(
0'
0%
#410000
1!
1=
0-
#420000
1"
0!
1>
0=
1-
#430000
1!
1=
0-
#440000
1#
0"
0!
1?
0>
0=
1-
#450000
1!
1=
0-
#460000
1"
0!
1>
0=
1-
#470000
1!
1=
0-
#480000
0$
0#
0"
0!
0<
0?
0>
0=
1-
0F
0E
0D
0C
0B
0A
15
1&
1;
1:
19
18
17
16
1,
1+
1*
1)
1(
1'
#490000
1!
1=
0-
0@
14
1%
#500000
1"
0!
1>
0=
1-
1A
06
0'
#510000
1!
1=
0-
1B
0A
07
16
0(
1'
#520000
1#
0"
0!
1?
0>
0=
1-
1C
0B
08
17
0)
1(
#530000
1!
1=
0-
1D
0C
09
18
0*
1)
#540000
1"
0!
1>
0=
1-
1E
0D
0:
19
0+
1*
#550000
1!
1=
0-
1F
0E
0;
1:
0,
1+
#560000
1$
0#
0"
0!
1<
0?
0>
0=
1-
1E
1D
1C
1B
1A
1@
05
0&
0:
09
08
07
06
04
0+
0*
0)
0(
0'
0%
#570000
1!
1=
0-
#580000
1"
0!
1>
0=
1-
#590000
1!
1=
0-
#600000
1#
0"
0!
1?
0>
0=
1-
#610000
1!
1=
0-
#620000
1"
0!
1>
0=
1-
#630000
1!
1=
0-
#640000
0$
0#
0"
0!
0<
0?
0>
0=
1-
0F
0E
0D
0C
0B
0A
15
1&
1;
1:
19
18
17
16
1,
1+
1*
1)
1(
1'
#650000
1!
1=
0-
0@
14
1%
#660000
1"
0!
1>
0=
1-
1A
06
0'
#670000
1!
1=
0-
1B
0A
07
16
0(
1'
#680000
1#
0"
0!
1?
0>
0=
1-
1C
0B
08
17
0)
1(
#690000
1!
1=
0-
1D
0C
09
18
0*
1)
#700000
1"
0!
1>
0=
1-
1E
0D
0:
19
0+
1*
#710000
1!
1=
0-
1F
0E
0;
1:
0,
1+
#720000
1$
0#
0"
0!
1<
0?
0>
0=
1-
1E
1D
1C
1B
1A
1@
05
0&
0:
09
08
07
06
04
0+
0*
0)
0(
0'
0%
#730000
1!
1=
0-
#740000
1"
0!
1>
0=
1-
#750000
1!
1=
0-
#760000
1#
0"
0!
1?
0>
0=
1-
#770000
1!
1=
0-
#780000
1"
0!
1>
0=
1-
#790000
1!
1=
0-
#800000
0$
0#
0"
0!
0<
0?
0>
0=
1-
0F
0E
0D
0C
0B
0A
15
1&
1;
1:
19
18
17
16
1,
1+
1*
1)
1(
1'
#810000
1!
1=
0-
0@
14
1%
#820000
1"
0!
1>
0=
1-
1A
06
0'
#830000
1!
1=
0-
1B
0A
07
16
0(
1'
#840000
1#
0"
0!
1?
0>
0=
1-
1C
0B
08
17
0)
1(
#850000
1!
1=
0-
1D
0C
09
18
0*
1)
#860000
1"
0!
1>
0=
1-
1E
0D
0:
19
0+
1*
#870000
1!
1=
0-
1F
0E
0;
1:
0,
1+
#880000
1$
0#
0"
0!
1<
0?
0>
0=
1-
1E
1D
1C
1B
1A
1@
05
0&
0:
09
08
07
06
04
0+
0*
0)
0(
0'
0%
#890000
1!
1=
0-
#900000
1"
0!
1>
0=
1-
#910000
1!
1=
0-
#920000
1#
0"
0!
1?
0>
0=
1-
#930000
1!
1=
0-
#940000
1"
0!
1>
0=
1-
#950000
1!
1=
0-
#960000
0$
0#
0"
0!
0<
0?
0>
0=
1-
0F
0E
0D
0C
0B
0A
15
1&
1;
1:
19
18
17
16
1,
1+
1*
1)
1(
1'
#970000
1!
1=
0-
0@
14
1%
#980000
1"
0!
1>
0=
1-
1A
06
0'
#990000
1!
1=
0-
1B
0A
07
16
0(
1'
